{
    "page": 1,
    "per_page": 6,
    "total": 12,
    "total_pages": 2,
    "data": [
        {
            "id": 1,
            "isi": "isi acilib",
            "full_name": "George Bluth",
            "madde":"22"
        },
        {
            "id": 2,
            "isi": "isi acilib",
            "full_name": "Janet Weaver",
            "madde":"22"
        },
        {
            "id": 3,
            "isi": "isi acilib",
            "full_name": "Emma Wong",
            "madde": "121"
        },
        {
            "id": 4,
            "isi": "isi baglanib",
            "full_name": "Eve Holt",
            "madde": "231"
        },
        {
            "id": 5,
            "isi": "isi baglanib",
            "full_name": "Charles Morris",
            "madde": "352"
        }
        
    ],
    "ad": {
        "company": "StatusCode Weekly",
        "url": "http://statuscode.org/",
        "text": "A weekly newsletter focusing on software development, infrastructure, the server, performance, and the stack end of things."
    }
}